<?xml version="1.0" encoding="UTF-8"?>
<svg enable-background="new 0 0 100 25" version="1.1" viewBox="0 0 100 25" xml:space="preserve" xmlns="http://www.w3.org/2000/svg" xmlns:cc="http://creativecommons.org/ns#" xmlns:dc="http://purl.org/dc/elements/1.1/" xmlns:rdf="http://www.w3.org/1999/02/22-rdf-syntax-ns#"><metadata><rdf:RDF><cc:Work rdf:about=""><dc:format>image/svg+xml</dc:format><dc:type rdf:resource="http://purl.org/dc/dcmitype/StillImage"/><dc:title/></cc:Work></rdf:RDF></metadata>

<path d="M13.999,1C7.649,1,2.5,6.149,2.5,12.5C2.5,18.852,7.649,24,13.999,24C20.351,24,25.5,18.852,25.5,12.5  C25.5,6.149,20.351,1,13.999,1z M14,14.34c-1.018,0-1.84-0.822-1.84-1.84c0-1.017,0.822-1.84,1.84-1.84s1.84,0.823,1.84,1.84  C15.84,13.518,15.018,14.34,14,14.34z" fill="#464646"/>

<g fill="#fff">
	<path d="m2.444 16.189v4.608c0 0.374 0.012 0.707 0.033 1.001s0.08 0.544 0.176 0.753 0.244 0.369 0.445 0.479c0.202 0.111 0.482 0.167 0.842 0.167s0.641-0.057 0.842-0.166 0.35-0.271 0.445-0.479c0.095-0.209 0.154-0.459 0.176-0.753s0.033-0.627 0.033-1.001v-4.608h0.924v4.389c0 0.572-0.027 1.07-0.082 1.496s-0.169 0.781-0.342 1.066c-0.172 0.286-0.418 0.502-0.736 0.645-0.318 0.142-0.738 0.214-1.26 0.214-0.52 0-0.94-0.072-1.259-0.215-0.318-0.143-0.564-0.357-0.736-0.645-0.172-0.287-0.287-0.641-0.342-1.066s-0.082-0.924-0.082-1.496v-4.389h0.923z"/>
	<path d="m10.519 24c-0.689 0-1.254-0.129-1.693-0.385-0.44-0.258-0.804-0.583-1.09-0.979l0.672-0.55c0.301 0.373 0.617 0.652 0.951 0.836s0.731 0.275 1.193 0.275c0.557 0 0.982-0.129 1.275-0.383 0.294-0.256 0.44-0.613 0.44-1.072 0-0.371-0.106-0.661-0.319-0.869-0.213-0.207-0.582-0.355-1.11-0.443l-0.858-0.143c-0.373-0.066-0.688-0.165-0.94-0.297-0.253-0.133-0.456-0.292-0.61-0.479s-0.264-0.393-0.33-0.616c-0.066-0.225-0.1-0.457-0.1-0.7 0-0.704 0.232-1.237 0.693-1.598 0.463-0.358 1.086-0.539 1.87-0.539 0.616 0 1.135 0.104 1.557 0.312s0.761 0.5 1.018 0.876l-0.649 0.561c-0.213-0.279-0.469-0.506-0.771-0.682-0.301-0.176-0.689-0.264-1.166-0.264-0.521 0-0.92 0.109-1.199 0.326-0.279 0.22-0.418 0.547-0.418 0.983 0 0.345 0.104 0.622 0.313 0.837s0.585 0.37 1.128 0.465l0.824 0.144c0.375 0.065 0.689 0.165 0.946 0.298 0.257 0.132 0.464 0.289 0.622 0.473 0.157 0.184 0.27 0.391 0.335 0.617 0.066 0.229 0.099 0.467 0.099 0.717 0 0.711-0.232 1.271-0.697 1.674-0.467 0.403-1.128 0.605-1.986 0.605z"/>
	<path d="m14.831 23.867v-7.678h4.729v0.803h-3.806v2.586h3.674v0.803h-3.674v2.684h3.806v0.804l-4.729-2e-3z"/>
	<path d="m22.354 23.867h-0.924v-7.678h2.794c0.711 0 1.254 0.194 1.628 0.582 0.374 0.391 0.561 0.933 0.561 1.629 0 0.623-0.161 1.121-0.484 1.496-0.322 0.373-0.791 0.59-1.407 0.648l1.958 3.321h-1.034l-1.87-3.277h-1.221l-1e-3 3.279zm1.848-4.058c0.389 0 0.691-0.098 0.908-0.291 0.216-0.194 0.324-0.472 0.324-0.83v-0.571c0-0.359-0.108-0.638-0.324-0.831-0.217-0.194-0.52-0.292-0.908-0.292h-1.848v2.815h1.848z"/>
</g>

<rect x="47" y="2" width="9" height="22" fill="#464646"/>
<path d="m56 2v21h-8v-21h8m1-1h-10v23h10v-23z" fill="#6E6E6E"/>
<path d="m47 2v21h-8v-21h8m1-1h-10v23h10v-23z" fill="#6E6E6E"/>
<path d="M83,2c5.79,0,10.5,4.71,10.5,10.5S88.79,23,83,23s-10.5-4.71-10.5-10.5S77.21,2,83,2 M83,1    c-6.352,0-11.5,5.149-11.5,11.5C71.5,18.852,76.648,24,83,24s11.5-5.148,11.5-11.5C94.5,6.149,89.352,1,83,1L83,1z" fill="#6E6E6E"/>
<circle cx="83" cy="12.5" r="1.84" fill="#6E6E6E"/>

<g fill="#fff">
	<path d="m39.733 22.846h-0.055c-0.066 0.146-0.144 0.289-0.231 0.43-0.089 0.139-0.2 0.262-0.335 0.367-0.137 0.106-0.3 0.192-0.49 0.26-0.191 0.065-0.418 0.097-0.682 0.097-0.836 0-1.458-0.337-1.865-1.012-0.406-0.676-0.609-1.643-0.609-2.904 0-1.318 0.223-2.32 0.67-3.003s1.137-1.022 2.068-1.022c0.359 0 0.671 0.047 0.936 0.144 0.264 0.096 0.488 0.224 0.676 0.385 0.188 0.162 0.343 0.343 0.468 0.545 0.124 0.202 0.228 0.405 0.308 0.61l-0.792 0.361c-0.066-0.168-0.143-0.328-0.227-0.479s-0.188-0.283-0.308-0.396c-0.121-0.112-0.267-0.203-0.435-0.27-0.169-0.066-0.367-0.1-0.594-0.1-0.616 0-1.068 0.231-1.359 0.692-0.289 0.464-0.434 1.078-0.434 1.849v1.188c0 0.39 0.029 0.742 0.088 1.062 0.059 0.318 0.156 0.596 0.291 0.83 0.137 0.234 0.312 0.416 0.528 0.545s0.481 0.192 0.798 0.192c0.498 0 0.887-0.149 1.166-0.45 0.278-0.302 0.418-0.689 0.418-1.166v-0.791h-1.617v-0.736h2.475v3.795h-0.857v-1.023z"/>
	<path d="m44.749 24c-0.469 0-0.873-0.09-1.21-0.27s-0.616-0.438-0.836-0.775-0.382-0.751-0.483-1.243c-0.104-0.491-0.154-1.052-0.154-1.683 0-0.625 0.051-1.184 0.154-1.678 0.102-0.496 0.264-0.912 0.483-1.25 0.22-0.336 0.499-0.595 0.836-0.773 0.337-0.18 0.741-0.27 1.21-0.27s0.873 0.09 1.21 0.27 0.616 0.438 0.837 0.773c0.219 0.338 0.381 0.754 0.483 1.25 0.102 0.494 0.153 1.053 0.153 1.678 0 0.631-0.051 1.191-0.153 1.683-0.103 0.492-0.265 0.906-0.483 1.243-0.221 0.337-0.5 0.597-0.837 0.775-0.337 0.18-0.741 0.27-1.21 0.27zm0-0.803c0.309 0 0.568-0.062 0.781-0.182 0.213-0.121 0.389-0.293 0.527-0.512 0.14-0.221 0.24-0.486 0.303-0.799 0.062-0.311 0.094-0.661 0.094-1.051v-1.253c0-0.381-0.031-0.729-0.094-1.045-0.062-0.314-0.163-0.582-0.303-0.804-0.139-0.22-0.314-0.391-0.527-0.512-0.213-0.12-0.473-0.181-0.781-0.181s-0.568 0.061-0.781 0.181c-0.213 0.121-0.389 0.292-0.527 0.512-0.14 0.222-0.24 0.488-0.303 0.804-0.062 0.315-0.094 0.664-0.094 1.045v1.254c0 0.39 0.031 0.74 0.094 1.051 0.062 0.312 0.163 0.578 0.303 0.799 0.139 0.219 0.314 0.391 0.527 0.512 0.213 0.12 0.473 0.181 0.781 0.181z"/>
	<path d="m53.34 23.868-0.648-2.188h-2.695l-0.648 2.188h-0.959l2.354-7.679h1.222l2.354 7.679h-0.98zm-1.945-6.699h-0.101l-1.078 3.707h2.255l-1.076-3.707z"/>
	<path d="m55.969 23.868v-7.679h0.926v6.875h3.641v0.804h-4.567z"/>
</g>

<g fill="#fff">
	<path d="m67.436 23.868v-7.679h2.793c0.711 0 1.254 0.194 1.629 0.584 0.373 0.389 0.562 0.931 0.562 1.627 0 0.697-0.188 1.24-0.562 1.629-0.375 0.389-0.918 0.582-1.629 0.582h-1.869v3.257h-0.924zm0.923-4.057h1.848c0.389 0 0.691-0.099 0.906-0.293 0.217-0.193 0.326-0.472 0.326-0.83v-0.571c0-0.359-0.109-0.636-0.326-0.831-0.215-0.193-0.518-0.291-0.906-0.291h-1.848v2.816z"/>
	<path d="M76.807,16.993v6.875h-0.924v-6.875H73.32v-0.804h6.049v0.804H76.807z"/>
	<path d="m81.559 23.868h-0.924v-7.679h2.793c0.711 0 1.254 0.194 1.629 0.584 0.373 0.389 0.562 0.931 0.562 1.627 0 0.623-0.162 1.121-0.484 1.496-0.321 0.373-0.791 0.59-1.407 0.648l1.959 3.322h-1.037l-1.869-3.277h-1.221v3.278h-1e-3zm1.847-4.057c0.389 0 0.691-0.099 0.908-0.293 0.215-0.193 0.324-0.472 0.324-0.83v-0.571c0-0.359-0.109-0.636-0.324-0.831-0.217-0.193-0.521-0.291-0.908-0.291h-1.848v2.816h1.848z"/>
	<path d="m89.545 24c-0.471 0-0.873-0.09-1.211-0.27s-0.615-0.438-0.836-0.775c-0.219-0.337-0.381-0.751-0.484-1.243-0.102-0.491-0.152-1.052-0.152-1.683 0-0.625 0.052-1.184 0.152-1.678 0.104-0.496 0.266-0.912 0.484-1.25 0.221-0.336 0.498-0.595 0.836-0.773 0.338-0.18 0.74-0.27 1.211-0.27 0.469 0 0.873 0.09 1.209 0.27 0.338 0.18 0.617 0.438 0.836 0.773 0.221 0.338 0.381 0.754 0.484 1.25 0.103 0.494 0.154 1.053 0.154 1.678 0 0.631-0.052 1.191-0.154 1.683-0.104 0.492-0.264 0.906-0.484 1.243-0.219 0.337-0.498 0.597-0.836 0.775-0.336 0.18-0.74 0.27-1.209 0.27zm0-0.803c0.307 0 0.568-0.062 0.781-0.182 0.211-0.121 0.389-0.293 0.527-0.512 0.139-0.221 0.239-0.486 0.303-0.799 0.062-0.311 0.094-0.661 0.094-1.051v-1.253c0-0.381-0.031-0.729-0.094-1.045-0.062-0.314-0.164-0.582-0.303-0.804-0.14-0.22-0.316-0.391-0.527-0.512-0.213-0.12-0.475-0.181-0.781-0.181-0.309 0-0.568 0.061-0.781 0.181-0.213 0.121-0.389 0.292-0.527 0.512-0.141 0.222-0.241 0.488-0.303 0.804s-0.094 0.665-0.094 1.045v1.254c0 0.39 0.031 0.74 0.094 1.051 0.062 0.312 0.162 0.578 0.303 0.799 0.14 0.219 0.314 0.391 0.527 0.512 0.213 0.12 0.472 0.181 0.781 0.181z"/>
	<path d="m94.637 17.367h-0.076v6.501h-0.836v-7.679h1.31l2.616 6.436h0.078v-6.436h0.836v7.679h-1.309l-2.619-6.501z"/>
</g>

</svg>
